%YAML 1.1
%TAG !u! tag:unity3d.com,2011:
--- !u!114 &11400000
MonoBehaviour:
  m_ObjectHideFlags: 0
  m_CorrespondingSourceObject: {fileID: 0}
  m_PrefabInstance: {fileID: 0}
  m_PrefabAsset: {fileID: 0}
  m_GameObject: {fileID: 0}
  m_Enabled: 1
  m_EditorHideFlags: 0
  m_Script: {fileID: 11500000, guid: 27ab93024bb783e48b2c419590601220, type: 3}
  m_Name: FastArm
  m_EditorClassIdentifier: 
  avatarIcon: {fileID: 10913, guid: 0000000000000000f000000000000000, type: 0}
  entityDataManager: {fileID: 11400000, guid: 24b07bd0180bf304495b94de710fb0b3, type: 2}
  entityId: 1
  engineEventManager: {fileID: 0}
  engineValueManager: {fileID: 0}
  engineValueSelections: []
  spawnUI: 0
  UIToSpawn: {fileID: 0}
  childOptions: 0
  syncValuesToUI: 0
  entitySyncType: 0
  entityLayoutSyncs: []
  setSkin: 0
  skinPrefab: {fileID: 0}
  skinSize: {x: 1, y: 2}
  skinRotation: {x: 0, y: 0, z: 0}
  locationData: {fileID: 11400000, guid: fcd6cf54689f2664f9ccd93a05a53c7f, type: 2}
  itemSpawnLocations:
  - overridePropertyName: RightHand
    overrideParent: 1
    parent: {fileID: 0}
    stringValue: 
    indexValue: 0
  - overridePropertyName: LeftHand
    overrideParent: 1
    parent: {fileID: 0}
    stringValue: 
    indexValue: 0
  - overridePropertyName: Head
    overrideParent: 1
    parent: {fileID: 0}
    stringValue: 
    indexValue: 0
  - overridePropertyName: Foot
    overrideParent: 1
    parent: {fileID: 0}
    stringValue: 
    indexValue: 0
  - overridePropertyName: Torso
    overrideParent: 1
    parent: {fileID: 0}
    stringValue: 
    indexValue: 0
  weight: 1
  speed: 9
  runSpeed: 6
  backwardSpeed: 2
  climbingSpeed: 2
  jumpPower: 5
  buffs: []
