%YAML 1.1
%TAG !u! tag:unity3d.com,2011:
--- !u!114 &11400000
MonoBehaviour:
  m_ObjectHideFlags: 0
  m_CorrespondingSourceObject: {fileID: 0}
  m_PrefabInstance: {fileID: 0}
  m_PrefabAsset: {fileID: 0}
  m_GameObject: {fileID: 0}
  m_Enabled: 1
  m_EditorHideFlags: 0
  m_Script: {fileID: 11500000, guid: 72ab66ed03f51ff4c8304d5dae731563, type: 3}
  m_Name: ForceGun
  m_EditorClassIdentifier: 
  connectedPrefab: {fileID: 1928542740963574, guid: 33891d5ce14256a438b8b7f47bee262e,
    type: 3}
  icon: {fileID: 10915, guid: 0000000000000000f000000000000000, type: 0}
  spawnUI: 1
  itemUI: {fileID: 1341164273875498, guid: ce29eb1ebba0deb419a0ab3ecdba233b, type: 3}
  keepUIActiveIfDropped: 0
  setOwnerAsParent: 0
  value: 0
  weight: 0
  droppable: 0
  droppedPrefab: {fileID: 0}
  quickMenuCompatible: 1
  particleFX: {fileID: 0}
  animState: 
  buffs: []
  locationData: {fileID: 0}
  defaultSpawnLocation:
    stringValue: 
    indexValue: 0
    stringValues: []
  removeAmount: 1
  recoilTime: 0.2
  instantFirstUse: 1
  ammoType: 1
  localAmmo:
    valueName: ValueName
    data: {fileID: 11400000, guid: d9874d4938405ff4b9983e0c6b6c461c, type: 2}
    maxCount: 1
    unlimitedTotalAmount: 1
  globalAmmoManager: {fileID: 0}
  globalAmmo:
    stringValue: 
    indexValue: 0
    stringValues: []
  onEmpty: 0
  aimMask:
    serializedVersion: 2
    m_Bits: 0
  aimDistance: 10
  aimOffset: {x: 0, y: 0, z: 0}
  muzzlePos: Muzzle
  muzzlePosInd: 1
  aimFX: {fileID: 11400000, guid: 057445ff5c3013b49978d805599bb5ca, type: 2}
  forcePowerUp: 50
  forcePowerDown: 0
  forcePowerHor: 10
  forceType: 0
  forceMode: 1
  speedType: 1
  directionType: 1
