%YAML 1.1
%TAG !u! tag:unity3d.com,2011:
--- !u!114 &11400000
MonoBehaviour:
  m_ObjectHideFlags: 0
  m_CorrespondingSourceObject: {fileID: 0}
  m_PrefabInstance: {fileID: 0}
  m_PrefabAsset: {fileID: 0}
  m_GameObject: {fileID: 0}
  m_Enabled: 1
  m_EditorHideFlags: 0
  m_Script: {fileID: 11500000, guid: b06f54cf7d8d37e4db1b14427ada24ad, type: 3}
  m_Name: Coins
  m_EditorClassIdentifier: 
  valueType: 1
  maxSize: 100
  reloadTime: 0
  rechargeSpeed: 1
  overheat: 0
  overheatTime: 0
