%YAML 1.1
%TAG !u! tag:unity3d.com,2011:
--- !u!114 &11400000
MonoBehaviour:
  m_ObjectHideFlags: 0
  m_CorrespondingSourceObject: {fileID: 0}
  m_PrefabInstance: {fileID: 0}
  m_PrefabAsset: {fileID: 0}
  m_GameObject: {fileID: 0}
  m_Enabled: 1
  m_EditorHideFlags: 0
  m_Script: {fileID: 11500000, guid: 50062f81941cca548a0615238ed4d460, type: 3}
  m_Name: EngineValueManager_WeaponValues
  m_EditorClassIdentifier: 
  engineValueCategories:
  - categoryName: PlayerWeapons
    valueType: 1
    engineValueDatas:
    - {fileID: 11400000, guid: feea629792d101847aaffae99952934a, type: 2}
