%YAML 1.1
%TAG !u! tag:unity3d.com,2011:
--- !u!319 &31900000
AvatarMask:
  m_ObjectHideFlags: 0
  m_CorrespondingSourceObject: {fileID: 0}
  m_PrefabInstance: {fileID: 0}
  m_PrefabAsset: {fileID: 0}
  m_Name: HammerSwing
  m_Mask: 00000000010000000100000000000000000000000100000001000000010000000100000000000000000000000100000001000000
  m_Elements:
  - m_Path: 
    m_Weight: 1
  - m_Path: Bip001
    m_Weight: 1
  - m_Path: Bip001/Bip001 Footsteps
    m_Weight: 1
  - m_Path: Bip001/Bip001 Pelvis
    m_Weight: 1
  - m_Path: Bip001/Bip001 Pelvis/Bip001 L Thigh
    m_Weight: 1
  - m_Path: Bip001/Bip001 Pelvis/Bip001 L Thigh/Bip001 L Calf
    m_Weight: 1
  - m_Path: Bip001/Bip001 Pelvis/Bip001 L Thigh/Bip001 L Calf/Bip001 L Foot
    m_Weight: 1
  - m_Path: Bip001/Bip001 Pelvis/Bip001 L Thigh/Bip001 L Calf/Bip001 L Foot/Bip001
      L Toe0
    m_Weight: 1
  - m_Path: Bip001/Bip001 Pelvis/Bip001 L Thigh/Bip001 L Calf/Bip001 L Foot/Bip001
      L Toe0/Bip001 L Toe0Nub
    m_Weight: 1
  - m_Path: Bip001/Bip001 Pelvis/Bip001 R Thigh
    m_Weight: 1
  - m_Path: Bip001/Bip001 Pelvis/Bip001 R Thigh/Bip001 R Calf
    m_Weight: 1
  - m_Path: Bip001/Bip001 Pelvis/Bip001 R Thigh/Bip001 R Calf/Bip001 R Foot
    m_Weight: 1
  - m_Path: Bip001/Bip001 Pelvis/Bip001 R Thigh/Bip001 R Calf/Bip001 R Foot/Bip001
      R Toe0
    m_Weight: 1
  - m_Path: Bip001/Bip001 Pelvis/Bip001 R Thigh/Bip001 R Calf/Bip001 R Foot/Bip001
      R Toe0/Bip001 R Toe0Nub
    m_Weight: 1
  - m_Path: Bip001/Bip001 Pelvis/Bip001 Spine
    m_Weight: 1
  - m_Path: Bip001/Bip001 Pelvis/Bip001 Spine/Bip001 Spine1
    m_Weight: 1
  - m_Path: Bip001/Bip001 Pelvis/Bip001 Spine/Bip001 Spine1/Bip001 L Clavicle
    m_Weight: 1
  - m_Path: Bip001/Bip001 Pelvis/Bip001 Spine/Bip001 Spine1/Bip001 L Clavicle/Bip001
      L UpperArm
    m_Weight: 1
  - m_Path: Bip001/Bip001 Pelvis/Bip001 Spine/Bip001 Spine1/Bip001 L Clavicle/Bip001
      L UpperArm/Bip001 L Forearm
    m_Weight: 1
  - m_Path: Bip001/Bip001 Pelvis/Bip001 Spine/Bip001 Spine1/Bip001 L Clavicle/Bip001
      L UpperArm/Bip001 L Forearm/Bip001 L Hand
    m_Weight: 1
  - m_Path: Bip001/Bip001 Pelvis/Bip001 Spine/Bip001 Spine1/Bip001 L Clavicle/Bip001
      L UpperArm/Bip001 L Forearm/Bip001 L Hand/Bip001 L Finger0
    m_Weight: 1
  - m_Path: Bip001/Bip001 Pelvis/Bip001 Spine/Bip001 Spine1/Bip001 L Clavicle/Bip001
      L UpperArm/Bip001 L Forearm/Bip001 L Hand/Bip001 L Finger0/Bip001 L Finger0Nub
    m_Weight: 1
  - m_Path: Bip001/Bip001 Pelvis/Bip001 Spine/Bip001 Spine1/Bip001 L Clavicle/Bip001
      L UpperArm/Bip001 L Forearm/Bip001 L Hand/Bip001 L Finger1
    m_Weight: 1
  - m_Path: Bip001/Bip001 Pelvis/Bip001 Spine/Bip001 Spine1/Bip001 L Clavicle/Bip001
      L UpperArm/Bip001 L Forearm/Bip001 L Hand/Bip001 L Finger1/Bip001 L Finger1Nub
    m_Weight: 1
  - m_Path: Bip001/Bip001 Pelvis/Bip001 Spine/Bip001 Spine1/Bip001 Neck
    m_Weight: 1
  - m_Path: Bip001/Bip001 Pelvis/Bip001 Spine/Bip001 Spine1/Bip001 Neck/Bip001 Head
    m_Weight: 1
  - m_Path: Bip001/Bip001 Pelvis/Bip001 Spine/Bip001 Spine1/Bip001 Neck/Bip001 Head/Bip001
      HeadNub
    m_Weight: 1
  - m_Path: Bip001/Bip001 Pelvis/Bip001 Spine/Bip001 Spine1/Bip001 Neck/Bone011
    m_Weight: 1
  - m_Path: Bip001/Bip001 Pelvis/Bip001 Spine/Bip001 Spine1/Bip001 Neck/Bone011/Bone012
    m_Weight: 1
  - m_Path: Bip001/Bip001 Pelvis/Bip001 Spine/Bip001 Spine1/Bip001 Neck/Bone011/Bone012/Bone013
    m_Weight: 1
  - m_Path: Bip001/Bip001 Pelvis/Bip001 Spine/Bip001 Spine1/Bip001 Neck/Bone011/Bone012/Bone013/Bone014
    m_Weight: 1
  - m_Path: Bip001/Bip001 Pelvis/Bip001 Spine/Bip001 Spine1/Bip001 R Clavicle
    m_Weight: 1
  - m_Path: Bip001/Bip001 Pelvis/Bip001 Spine/Bip001 Spine1/Bip001 R Clavicle/Bip001
      R UpperArm
    m_Weight: 1
  - m_Path: Bip001/Bip001 Pelvis/Bip001 Spine/Bip001 Spine1/Bip001 R Clavicle/Bip001
      R UpperArm/Bip001 R Forearm
    m_Weight: 1
  - m_Path: Bip001/Bip001 Pelvis/Bip001 Spine/Bip001 Spine1/Bip001 R Clavicle/Bip001
      R UpperArm/Bip001 R Forearm/Bip001 R Hand
    m_Weight: 1
  - m_Path: Bip001/Bip001 Pelvis/Bip001 Spine/Bip001 Spine1/Bip001 R Clavicle/Bip001
      R UpperArm/Bip001 R Forearm/Bip001 R Hand/Bip001 R Finger0
    m_Weight: 1
  - m_Path: Bip001/Bip001 Pelvis/Bip001 Spine/Bip001 Spine1/Bip001 R Clavicle/Bip001
      R UpperArm/Bip001 R Forearm/Bip001 R Hand/Bip001 R Finger0/Bip001 R Finger0Nub
    m_Weight: 1
  - m_Path: Bip001/Bip001 Pelvis/Bip001 Spine/Bip001 Spine1/Bip001 R Clavicle/Bip001
      R UpperArm/Bip001 R Forearm/Bip001 R Hand/Bip001 R Finger1
    m_Weight: 1
  - m_Path: Bip001/Bip001 Pelvis/Bip001 Spine/Bip001 Spine1/Bip001 R Clavicle/Bip001
      R UpperArm/Bip001 R Forearm/Bip001 R Hand/Bip001 R Finger1/Bip001 R Finger1Nub
    m_Weight: 1
  - m_Path: Bip001/Bip001 Pelvis/Bone001
    m_Weight: 1
  - m_Path: Bip001/Bip001 Pelvis/Bone001/Bone002
    m_Weight: 1
  - m_Path: Bip001/Bip001 Pelvis/Bone001/Bone002/Bone003
    m_Weight: 1
  - m_Path: Bip001/Bip001 Pelvis/Bone001/Bone002/Bone003/Bone004
    m_Weight: 1
  - m_Path: Bip001/Bip001 Pelvis/Bone001/Bone002/Bone003/Bone004/Bone005
    m_Weight: 1
  - m_Path: Bip001/Bip001 Pelvis/Bone001/Bone002/Bone003/Bone004/Bone005/Bone006
    m_Weight: 1
  - m_Path: Bip001/Bip001 Pelvis/Bone001/Bone002/Bone003/Bone004/Bone005/Bone006/Bone007
    m_Weight: 1
  - m_Path: Bip001/Bip001 Pelvis/Bone001/Bone002/Bone003/Bone004/Bone005/Bone006/Bone007/Bone008
    m_Weight: 1
  - m_Path: Bip001/Bip001 Pelvis/Bone001/Bone002/Bone003/Bone004/Bone005/Bone006/Bone007/Bone008/Bone009
    m_Weight: 1
  - m_Path: Bip001/Bip001 Pelvis/Bone001/Bone002/Bone003/Bone004/Bone005/Bone006/Bone007/Bone008/Bone009/Bone010
    m_Weight: 1
  - m_Path: Bip001/Bip001 Prop2
    m_Weight: 1
  - m_Path: Bip001/Bip001 Prop2/hammerMaster
    m_Weight: 1
  - m_Path: Bip001/Bip001 Prop2/hammerMaster/hammerLow
    m_Weight: 1
  - m_Path: Bip001/Bip001 Prop2/hammerMaster/handHelper_0L
    m_Weight: 1
  - m_Path: Bip001/Bip001 Prop2/hammerMaster/handHelper_0R
    m_Weight: 1
  - m_Path: Object009
    m_Weight: 1
  - m_Path: scarf
    m_Weight: 1
