%YAML 1.1
%TAG !u! tag:unity3d.com,2011:
--- !u!114 &11400000
MonoBehaviour:
  m_ObjectHideFlags: 0
  m_CorrespondingSourceObject: {fileID: 0}
  m_PrefabInstance: {fileID: 0}
  m_PrefabAsset: {fileID: 0}
  m_GameObject: {fileID: 0}
  m_Enabled: 1
  m_EditorHideFlags: 0
  m_Script: {fileID: 11500000, guid: 7f17a4a2d2d6bc248beb7c3b2f9b579d, type: 3}
  m_Name: RemoveJumpingBuff_10
  m_EditorClassIdentifier: 
  delay: 0
  buffToRemove: {fileID: 11400000, guid: 65235f069ebc9124c9aa8cf83fa50fe1, type: 2}
