%YAML 1.1
%TAG !u! tag:unity3d.com,2011:
--- !u!114 &11400000
MonoBehaviour:
  m_ObjectHideFlags: 0
  m_CorrespondingSourceObject: {fileID: 0}
  m_PrefabInstance: {fileID: 0}
  m_PrefabAsset: {fileID: 0}
  m_GameObject: {fileID: 0}
  m_Enabled: 1
  m_EditorHideFlags: 0
  m_Script: {fileID: 11500000, guid: a03cfeb520f5917458060d6a082a0540, type: 3}
  m_Name: EffectSpeedSlow_0.5
  m_EditorClassIdentifier: 
  delay: 0
  speedMultiplier: 0.5
  effectTime: 3
  smoothTime: 1
  includeSmoothTimeToEffectTime: 0
