%YAML 1.1
%TAG !u! tag:unity3d.com,2011:
--- !u!1 &919691761479398683
GameObject:
  m_ObjectHideFlags: 0
  m_CorrespondingSourceObject: {fileID: 0}
  m_PrefabInstance: {fileID: 0}
  m_PrefabAsset: {fileID: 0}
  serializedVersion: 6
  m_Component:
  - component: {fileID: 919691761479398680}
  - component: {fileID: 919691761479398686}
  - component: {fileID: 919691761479398681}
  m_Layer: 0
  m_Name: pref_modu01_rock02
  m_TagString: Untagged
  m_Icon: {fileID: 0}
  m_NavMeshLayer: 0
  m_StaticEditorFlags: 0
  m_IsActive: 1
--- !u!4 &919691761479398680
Transform:
  m_ObjectHideFlags: 0
  m_CorrespondingSourceObject: {fileID: 0}
  m_PrefabInstance: {fileID: 0}
  m_PrefabAsset: {fileID: 0}
  m_GameObject: {fileID: 919691761479398683}
  m_LocalRotation: {x: 0, y: 0, z: 0, w: 1}
  m_LocalPosition: {x: 0, y: 0, z: 0}
  m_LocalScale: {x: 1, y: 1, z: 1}
  m_Children:
  - {fileID: 5312508159247056432}
  m_Father: {fileID: 0}
  m_RootOrder: 0
  m_LocalEulerAnglesHint: {x: 0, y: 0, z: 0}
--- !u!65 &919691761479398686
BoxCollider:
  m_ObjectHideFlags: 0
  m_CorrespondingSourceObject: {fileID: 0}
  m_PrefabInstance: {fileID: 0}
  m_PrefabAsset: {fileID: 0}
  m_GameObject: {fileID: 919691761479398683}
  m_Material: {fileID: 0}
  m_IsTrigger: 0
  m_Enabled: 1
  serializedVersion: 2
  m_Size: {x: 1.5709152, y: 8.245823, z: 1.6350784}
  m_Center: {x: 0.0089530945, y: 0.046979904, z: 0.00894928}
--- !u!136 &919691761479398681
CapsuleCollider:
  m_ObjectHideFlags: 0
  m_CorrespondingSourceObject: {fileID: 0}
  m_PrefabInstance: {fileID: 0}
  m_PrefabAsset: {fileID: 0}
  m_GameObject: {fileID: 919691761479398683}
  m_Material: {fileID: 0}
  m_IsTrigger: 0
  m_Enabled: 1
  m_Radius: 1.615982
  m_Height: 7.3270283
  m_Direction: 1
  m_Center: {x: 0, y: 0, z: 0}
--- !u!1001 &919691760841610538
PrefabInstance:
  m_ObjectHideFlags: 0
  serializedVersion: 2
  m_Modification:
    m_TransformParent: {fileID: 919691761479398680}
    m_Modifications:
    - target: {fileID: -927199367670048503, guid: 4edf8dcd4967edb4cadf8181af8b30cc,
        type: 3}
      propertyPath: m_Name
      value: mod_worldModular_rock2
      objectReference: {fileID: 0}
    - target: {fileID: -4216859302048453862, guid: 4edf8dcd4967edb4cadf8181af8b30cc,
        type: 3}
      propertyPath: m_LocalPosition.x
      value: -0
      objectReference: {fileID: 0}
    - target: {fileID: -4216859302048453862, guid: 4edf8dcd4967edb4cadf8181af8b30cc,
        type: 3}
      propertyPath: m_LocalPosition.y
      value: 0
      objectReference: {fileID: 0}
    - target: {fileID: -4216859302048453862, guid: 4edf8dcd4967edb4cadf8181af8b30cc,
        type: 3}
      propertyPath: m_LocalPosition.z
      value: 0
      objectReference: {fileID: 0}
    - target: {fileID: -4216859302048453862, guid: 4edf8dcd4967edb4cadf8181af8b30cc,
        type: 3}
      propertyPath: m_LocalRotation.x
      value: -0.7071068
      objectReference: {fileID: 0}
    - target: {fileID: -4216859302048453862, guid: 4edf8dcd4967edb4cadf8181af8b30cc,
        type: 3}
      propertyPath: m_LocalRotation.y
      value: 0
      objectReference: {fileID: 0}
    - target: {fileID: -4216859302048453862, guid: 4edf8dcd4967edb4cadf8181af8b30cc,
        type: 3}
      propertyPath: m_LocalRotation.z
      value: -0
      objectReference: {fileID: 0}
    - target: {fileID: -4216859302048453862, guid: 4edf8dcd4967edb4cadf8181af8b30cc,
        type: 3}
      propertyPath: m_LocalRotation.w
      value: 0.7071068
      objectReference: {fileID: 0}
    - target: {fileID: -4216859302048453862, guid: 4edf8dcd4967edb4cadf8181af8b30cc,
        type: 3}
      propertyPath: m_RootOrder
      value: 0
      objectReference: {fileID: 0}
    - target: {fileID: -4216859302048453862, guid: 4edf8dcd4967edb4cadf8181af8b30cc,
        type: 3}
      propertyPath: m_LocalEulerAnglesHint.x
      value: 0
      objectReference: {fileID: 0}
    - target: {fileID: -4216859302048453862, guid: 4edf8dcd4967edb4cadf8181af8b30cc,
        type: 3}
      propertyPath: m_LocalEulerAnglesHint.y
      value: 0
      objectReference: {fileID: 0}
    - target: {fileID: -4216859302048453862, guid: 4edf8dcd4967edb4cadf8181af8b30cc,
        type: 3}
      propertyPath: m_LocalEulerAnglesHint.z
      value: 0
      objectReference: {fileID: 0}
    - target: {fileID: -1504981713932161579, guid: 4edf8dcd4967edb4cadf8181af8b30cc,
        type: 3}
      propertyPath: m_Materials.Array.data[0]
      value: 
      objectReference: {fileID: 2100000, guid: 4b9e4fb26e0087f408c6f032d4f2cb8a, type: 2}
    m_RemovedComponents: []
  m_SourcePrefab: {fileID: 100100000, guid: 4edf8dcd4967edb4cadf8181af8b30cc, type: 3}
--- !u!4 &5312508159247056432 stripped
Transform:
  m_CorrespondingSourceObject: {fileID: -4216859302048453862, guid: 4edf8dcd4967edb4cadf8181af8b30cc,
    type: 3}
  m_PrefabInstance: {fileID: 919691760841610538}
  m_PrefabAsset: {fileID: 0}
