%YAML 1.1
%TAG !u! tag:unity3d.com,2011:
--- !u!1 &6638320102143285855
GameObject:
  m_ObjectHideFlags: 0
  m_CorrespondingSourceObject: {fileID: 0}
  m_PrefabInstance: {fileID: 0}
  m_PrefabAsset: {fileID: 0}
  serializedVersion: 6
  m_Component:
  - component: {fileID: 6638320102143285854}
  - component: {fileID: 6638320102143285853}
  m_Layer: 0
  m_Name: pref_modu01_medBrick
  m_TagString: Ground
  m_Icon: {fileID: 0}
  m_NavMeshLayer: 0
  m_StaticEditorFlags: 0
  m_IsActive: 1
--- !u!4 &6638320102143285854
Transform:
  m_ObjectHideFlags: 0
  m_CorrespondingSourceObject: {fileID: 0}
  m_PrefabInstance: {fileID: 0}
  m_PrefabAsset: {fileID: 0}
  m_GameObject: {fileID: 6638320102143285855}
  m_LocalRotation: {x: 0, y: 0, z: 0, w: 1}
  m_LocalPosition: {x: 0, y: 0, z: 0}
  m_LocalScale: {x: 1, y: 1, z: 1}
  m_Children:
  - {fileID: 1826975152844791642}
  m_Father: {fileID: 0}
  m_RootOrder: 0
  m_LocalEulerAnglesHint: {x: 0, y: 0, z: 0}
--- !u!65 &6638320102143285853
BoxCollider:
  m_ObjectHideFlags: 0
  m_CorrespondingSourceObject: {fileID: 0}
  m_PrefabInstance: {fileID: 0}
  m_PrefabAsset: {fileID: 0}
  m_GameObject: {fileID: 6638320102143285855}
  m_Material: {fileID: 0}
  m_IsTrigger: 0
  m_Enabled: 1
  serializedVersion: 2
  m_Size: {x: 2.8404007, y: 2.8269482, z: 2.8018913}
  m_Center: {x: 0, y: 0, z: 0}
--- !u!1001 &6638320102643004480
PrefabInstance:
  m_ObjectHideFlags: 0
  serializedVersion: 2
  m_Modification:
    m_TransformParent: {fileID: 6638320102143285854}
    m_Modifications:
    - target: {fileID: -927199367670048503, guid: bc866cfbe12e7e348828ff588f5853ca,
        type: 3}
      propertyPath: m_Name
      value: mod_worldModular_medBrick
      objectReference: {fileID: 0}
    - target: {fileID: -4216859302048453862, guid: bc866cfbe12e7e348828ff588f5853ca,
        type: 3}
      propertyPath: m_LocalPosition.x
      value: -0
      objectReference: {fileID: 0}
    - target: {fileID: -4216859302048453862, guid: bc866cfbe12e7e348828ff588f5853ca,
        type: 3}
      propertyPath: m_LocalPosition.y
      value: 0
      objectReference: {fileID: 0}
    - target: {fileID: -4216859302048453862, guid: bc866cfbe12e7e348828ff588f5853ca,
        type: 3}
      propertyPath: m_LocalPosition.z
      value: 0
      objectReference: {fileID: 0}
    - target: {fileID: -4216859302048453862, guid: bc866cfbe12e7e348828ff588f5853ca,
        type: 3}
      propertyPath: m_LocalRotation.x
      value: -0.7071068
      objectReference: {fileID: 0}
    - target: {fileID: -4216859302048453862, guid: bc866cfbe12e7e348828ff588f5853ca,
        type: 3}
      propertyPath: m_LocalRotation.y
      value: 0
      objectReference: {fileID: 0}
    - target: {fileID: -4216859302048453862, guid: bc866cfbe12e7e348828ff588f5853ca,
        type: 3}
      propertyPath: m_LocalRotation.z
      value: -0
      objectReference: {fileID: 0}
    - target: {fileID: -4216859302048453862, guid: bc866cfbe12e7e348828ff588f5853ca,
        type: 3}
      propertyPath: m_LocalRotation.w
      value: 0.7071068
      objectReference: {fileID: 0}
    - target: {fileID: -4216859302048453862, guid: bc866cfbe12e7e348828ff588f5853ca,
        type: 3}
      propertyPath: m_RootOrder
      value: 0
      objectReference: {fileID: 0}
    - target: {fileID: -4216859302048453862, guid: bc866cfbe12e7e348828ff588f5853ca,
        type: 3}
      propertyPath: m_LocalEulerAnglesHint.x
      value: 0
      objectReference: {fileID: 0}
    - target: {fileID: -4216859302048453862, guid: bc866cfbe12e7e348828ff588f5853ca,
        type: 3}
      propertyPath: m_LocalEulerAnglesHint.y
      value: 0
      objectReference: {fileID: 0}
    - target: {fileID: -4216859302048453862, guid: bc866cfbe12e7e348828ff588f5853ca,
        type: 3}
      propertyPath: m_LocalEulerAnglesHint.z
      value: 0
      objectReference: {fileID: 0}
    - target: {fileID: -1504981713932161579, guid: bc866cfbe12e7e348828ff588f5853ca,
        type: 3}
      propertyPath: m_Materials.Array.data[0]
      value: 
      objectReference: {fileID: 2100000, guid: 4b9e4fb26e0087f408c6f032d4f2cb8a, type: 2}
    m_RemovedComponents: []
  m_SourcePrefab: {fileID: 100100000, guid: bc866cfbe12e7e348828ff588f5853ca, type: 3}
--- !u!4 &1826975152844791642 stripped
Transform:
  m_CorrespondingSourceObject: {fileID: -4216859302048453862, guid: bc866cfbe12e7e348828ff588f5853ca,
    type: 3}
  m_PrefabInstance: {fileID: 6638320102643004480}
  m_PrefabAsset: {fileID: 0}
