%YAML 1.1
%TAG !u! tag:unity3d.com,2011:
--- !u!21 &2100000
Material:
  serializedVersion: 6
  m_ObjectHideFlags: 0
  m_CorrespondingSourceObject: {fileID: 0}
  m_PrefabInstance: {fileID: 0}
  m_PrefabAsset: {fileID: 0}
  m_Name: Cave5
  m_Shader: {fileID: 46, guid: 0000000000000000f000000000000000, type: 0}
  m_ShaderKeywords: _EMISSION _NORMALMAP
  m_LightmapFlags: 1
  m_EnableInstancingVariants: 0
  m_DoubleSidedGI: 0
  m_CustomRenderQueue: -1
  stringTagMap: {}
  disabledShaderPasses: []
  m_SavedProperties:
    serializedVersion: 3
    m_TexEnvs:
    - _BumpMap:
        m_Texture: {fileID: 2800000, guid: e40a433047b1a1b4aa8317ccbfe3efb4, type: 3}
        m_Scale: {x: 1.5, y: 1.5}
        m_Offset: {x: 0, y: 0}
    - _Cube:
        m_Texture: {fileID: 8900000, guid: 835fdf8bc815bb440ac13f272ece2b6a, type: 3}
        m_Scale: {x: 1, y: 1}
        m_Offset: {x: 0, y: 0}
    - _Cubemapemission:
        m_Texture: {fileID: 0}
        m_Scale: {x: 1, y: 1}
        m_Offset: {x: 0, y: 0}
    - _DetailAlbedoMap:
        m_Texture: {fileID: 0}
        m_Scale: {x: 1, y: 1}
        m_Offset: {x: 0, y: 0}
    - _DetailMask:
        m_Texture: {fileID: 0}
        m_Scale: {x: 1, y: 1}
        m_Offset: {x: 0, y: 0}
    - _DetailNormalMap:
        m_Texture: {fileID: 0}
        m_Scale: {x: 1, y: 1}
        m_Offset: {x: 0, y: 0}
    - _EmissionMap:
        m_Texture: {fileID: 0}
        m_Scale: {x: 2, y: 2}
        m_Offset: {x: 0, y: 0}
    - _MainTex:
        m_Texture: {fileID: 2800000, guid: a3e98b20c08da5e40be05ca3cd9b3832, type: 3}
        m_Scale: {x: 2, y: 2}
        m_Offset: {x: 0, y: 0}
    - _MetallicGlossMap:
        m_Texture: {fileID: 0}
        m_Scale: {x: 1, y: 1}
        m_Offset: {x: 0, y: 0}
    - _Noise:
        m_Texture: {fileID: 0}
        m_Scale: {x: 1, y: 1}
        m_Offset: {x: 0, y: 0}
    - _OcclusionMap:
        m_Texture: {fileID: 0}
        m_Scale: {x: 1, y: 1}
        m_Offset: {x: 0, y: 0}
    - _ParallaxMap:
        m_Texture: {fileID: 0}
        m_Scale: {x: 1, y: 1}
        m_Offset: {x: 0, y: 0}
    - _Ramp:
        m_Texture: {fileID: 0}
        m_Scale: {x: 1, y: 1}
        m_Offset: {x: 0, y: 0}
    m_Floats:
    - _BumpScale: 1
    - _Cutoff: 0.5
    - _DetailNormalMapScale: 1
    - _DstBlend: 0
    - _Fresnelpower: 2
    - _GlossMapScale: 1
    - _Glossiness: 0
    - _GlossyReflections: 1
    - _Height: 0.7
    - _IceCutoff: 0.1
    - _IceDisplacement: -1
    - _Metallic: 0
    - _Mode: 0
    - _NoiseScale: 1
    - _OcclusionStrength: 1
    - _Opacity: 0.4
    - _Parallax: 0.026570033
    - _Rafractionstrench: 0.25
    - _RampOffset: 0.287
    - _RimBrightness: 3.2
    - _RimPowerIce: 14.1
    - _RimPowerSnow: 9.5
    - _Scale: 1
    - _Sharpness: 1
    - _Shininess: 0.249321
    - _SmoothnessTextureChannel: 0
    - _SnowCutoff: 0.381
    - _SnowHeight: 0.0282
    - _SpecularHighlights: 1
    - _SrcBlend: 1
    - _Tess: 4
    - _ToonRampSoftNess: 0.195
    - _UVSec: 0
    - _ZWrite: 1
    m_Colors:
    - _BottomColor: {r: 0.22999996, g: 0, b: 0.95, a: 1}
    - _Color: {r: 1, g: 1, b: 1, a: 1}
    - _ColorIce: {r: 0.19999996, g: 0.5, b: 0.5, a: 1}
    - _ColorSnow: {r: 0.7, g: 1, b: 1, a: 1}
    - _Diffuse: {r: 0.6691177, g: 0.8355514, b: 1, a: 1}
    - _EmissionColor: {r: 0.13207549, g: 0.10777858, b: 0.10777858, a: 1}
    - _RampColor: {r: 0.34189212, g: 0.34189212, b: 0.3679245, a: 1}
    - _ReflectColor: {r: 0.22388059, g: 0.22388059, b: 0.22388059, a: 0.5019608}
    - _RimColor: {r: 0, g: 0.6, b: 0.8, a: 1}
    - _RimColorSnow: {r: 0, g: 0.6, b: 0.8, a: 1}
    - _SpecColor: {r: 0.6940298, g: 0.6940298, b: 0.6940298, a: 1}
    - _TColor: {r: 0.14453542, g: 0.1509434, b: 0.15069754, a: 1}
