%YAML 1.1
%TAG !u! tag:unity3d.com,2011:
--- !u!114 &11400000
MonoBehaviour:
  m_ObjectHideFlags: 0
  m_CorrespondingSourceObject: {fileID: 0}
  m_PrefabInstance: {fileID: 0}
  m_PrefabAsset: {fileID: 0}
  m_GameObject: {fileID: 0}
  m_Enabled: 1
  m_EditorHideFlags: 0
  m_Script: {fileID: 11500000, guid: bf34da24d8d2308458c0ab464c413532, type: 3}
  m_Name: InputAxisMovement_2
  m_EditorClassIdentifier: 
  guid: ee6d16defa9320846ac93a94f224cfb7
  updateType: 2
  horInput:
    stringValue: Horizontal
    indexValue: 0
  verInput:
    stringValue: Vertical
    indexValue: 1
  rawInputValues: 1
  speed: 5
