%YAML 1.1
%TAG !u! tag:unity3d.com,2011:
--- !u!1 &8264170515405773059
GameObject:
  m_ObjectHideFlags: 0
  m_CorrespondingSourceObject: {fileID: 0}
  m_PrefabInstance: {fileID: 0}
  m_PrefabAsset: {fileID: 0}
  serializedVersion: 6
  m_Component:
  - component: {fileID: 1546841419008620066}
  m_Layer: 0
  m_Name: Wood_Roof_En
  m_TagString: Untagged
  m_Icon: {fileID: 0}
  m_NavMeshLayer: 0
  m_StaticEditorFlags: 0
  m_IsActive: 1
--- !u!4 &1546841419008620066
Transform:
  m_ObjectHideFlags: 0
  m_CorrespondingSourceObject: {fileID: 0}
  m_PrefabInstance: {fileID: 0}
  m_PrefabAsset: {fileID: 0}
  m_GameObject: {fileID: 8264170515405773059}
  m_LocalRotation: {x: -0, y: -0, z: -0, w: 1}
  m_LocalPosition: {x: 0, y: 0, z: 0}
  m_LocalScale: {x: 1, y: 1, z: 1}
  m_Children:
  - {fileID: 727690884456391415}
  m_Father: {fileID: 0}
  m_RootOrder: 0
  m_LocalEulerAnglesHint: {x: 0, y: 0, z: 0}
--- !u!1001 &5720684024285465069
PrefabInstance:
  m_ObjectHideFlags: 0
  serializedVersion: 2
  m_Modification:
    m_TransformParent: {fileID: 1546841419008620066}
    m_Modifications:
    - target: {fileID: -927199367670048503, guid: e7ac912160139a14eb5f57f997bac1d0,
        type: 3}
      propertyPath: m_Name
      value: Wood_H_Roof
      objectReference: {fileID: 0}
    - target: {fileID: -4216859302048453862, guid: e7ac912160139a14eb5f57f997bac1d0,
        type: 3}
      propertyPath: m_LocalPosition.x
      value: -1.7758331
      objectReference: {fileID: 0}
    - target: {fileID: -4216859302048453862, guid: e7ac912160139a14eb5f57f997bac1d0,
        type: 3}
      propertyPath: m_LocalPosition.y
      value: 0
      objectReference: {fileID: 0}
    - target: {fileID: -4216859302048453862, guid: e7ac912160139a14eb5f57f997bac1d0,
        type: 3}
      propertyPath: m_LocalPosition.z
      value: 0
      objectReference: {fileID: 0}
    - target: {fileID: -4216859302048453862, guid: e7ac912160139a14eb5f57f997bac1d0,
        type: 3}
      propertyPath: m_LocalRotation.x
      value: 0.000000015454312
      objectReference: {fileID: 0}
    - target: {fileID: -4216859302048453862, guid: e7ac912160139a14eb5f57f997bac1d0,
        type: 3}
      propertyPath: m_LocalRotation.y
      value: -0.7071068
      objectReference: {fileID: 0}
    - target: {fileID: -4216859302048453862, guid: e7ac912160139a14eb5f57f997bac1d0,
        type: 3}
      propertyPath: m_LocalRotation.z
      value: 0.000000015454312
      objectReference: {fileID: 0}
    - target: {fileID: -4216859302048453862, guid: e7ac912160139a14eb5f57f997bac1d0,
        type: 3}
      propertyPath: m_LocalRotation.w
      value: 0.7071068
      objectReference: {fileID: 0}
    - target: {fileID: -4216859302048453862, guid: e7ac912160139a14eb5f57f997bac1d0,
        type: 3}
      propertyPath: m_RootOrder
      value: 0
      objectReference: {fileID: 0}
    - target: {fileID: -4216859302048453862, guid: e7ac912160139a14eb5f57f997bac1d0,
        type: 3}
      propertyPath: m_LocalEulerAnglesHint.x
      value: 0
      objectReference: {fileID: 0}
    - target: {fileID: -4216859302048453862, guid: e7ac912160139a14eb5f57f997bac1d0,
        type: 3}
      propertyPath: m_LocalEulerAnglesHint.y
      value: 0
      objectReference: {fileID: 0}
    - target: {fileID: -4216859302048453862, guid: e7ac912160139a14eb5f57f997bac1d0,
        type: 3}
      propertyPath: m_LocalEulerAnglesHint.z
      value: 0
      objectReference: {fileID: 0}
    - target: {fileID: -4216859302048453862, guid: e7ac912160139a14eb5f57f997bac1d0,
        type: 3}
      propertyPath: m_LocalScale.x
      value: 4.3208017
      objectReference: {fileID: 0}
    - target: {fileID: -4216859302048453862, guid: e7ac912160139a14eb5f57f997bac1d0,
        type: 3}
      propertyPath: m_LocalScale.y
      value: 4.3208
      objectReference: {fileID: 0}
    - target: {fileID: -4216859302048453862, guid: e7ac912160139a14eb5f57f997bac1d0,
        type: 3}
      propertyPath: m_LocalScale.z
      value: 4.3208017
      objectReference: {fileID: 0}
    - target: {fileID: -1504981713932161579, guid: e7ac912160139a14eb5f57f997bac1d0,
        type: 3}
      propertyPath: m_Materials.Array.data[0]
      value: 
      objectReference: {fileID: 2100000, guid: 894702eedf2adba40978400bbcaefe0f, type: 2}
    m_RemovedComponents: []
  m_SourcePrefab: {fileID: 100100000, guid: e7ac912160139a14eb5f57f997bac1d0, type: 3}
--- !u!4 &727690884456391415 stripped
Transform:
  m_CorrespondingSourceObject: {fileID: -4216859302048453862, guid: e7ac912160139a14eb5f57f997bac1d0,
    type: 3}
  m_PrefabInstance: {fileID: 5720684024285465069}
  m_PrefabAsset: {fileID: 0}
